%YAML 1.1
%TAG !u! tag:unity3d.com,2011:
--- !u!1045 &1
EditorBuildSettings:
  m_ObjectHideFlags: 0
  serializedVersion: 2
  m_Scenes:
  - enabled: 1
    path: Assets/Scenes/SplashScreen.unity
    guid: 98493b26191e855479d367c89cac8b6a
  - enabled: 1
    path: Assets/Scenes/MainMenu.unity
    guid: 9fc0d4010bbf28b4594072e72b8655ab
  - enabled: 1
    path: Assets/Scenes/Game.unity
    guid: fdd7a0e702323f54fbc897d45af19a3d
  m_configObjects: {}
